{
  "data": [
    {
      "id": "prod_001",
      "slug": "mens-embroidered-kurta",
      "name": "Embroidered Kurta",
      "shortDescription": "Hand-embroidery kurta with breathable cotton.",
      "cardImage": "https://cdn.lyfclothing.dev/products/prod_001/card.jpg",
      "rating": 4.6,
      "reviewsCount": 128,
      "badges": ["bestseller", "festive-pick"],
      "tags": ["kurta", "cotton", "festive"],
      "createdAt": "2025-09-10T09:00:00Z",
      "baseSku": "LYF-M-FEST-001",
      "options": [
        {
          "name": "Color",
          "values": ["Ivory", "Maroon"]
        },
        {
          "name": "Size",
          "values": ["S", "M", "L", "XL"]
        }
      ],
      "variants": [
        {
          "sku": "LYF-M-FEST-IVR-S",
          "size": "S",
          "color": {"name": "Ivory", "hex": "#FFFFF0"},
          "stock": 5,
          "price": {
            "currency": "INR",
            "original": 2999,
            "discounted": 1999
          }
        },
        {
          "sku": "LYF-M-FEST-IVR-M",
          "size": "M",
          "color": {"name": "Ivory", "hex": "#FFFFF0"},
          "stock": 7,
          "price": {
            "currency": "INR",
            "original": 2999,
            "discounted": 1999
          }
        },
        {
          "sku": "LYF-M-FEST-IVR-L",
          "size": "L",
          "color": {"name": "Ivory", "hex": "#FFFFF0"},
          "stock": 6,
          "price": {
            "currency": "INR",
            "original": 2999,
            "discounted": 1999
          }
        },
        {
          "sku": "LYF-M-FEST-IVR-XL",
          "size": "XL",
          "color": {"name": "Ivory", "hex": "#FFFFF0"},
          "stock": 4,
          "price": {
            "currency": "INR",
            "original": 3199, 
            "discounted": 2199
          }
        },
        {
          "sku": "LYF-M-FEST-MRN-S",
          "size": "S",
          "color": {"name": "Maroon", "hex": "#800000"},
          "stock": 5,
          "price": {
            "currency": "INR",
            "original": 2999,
            "discounted": 1999
          }
        },
        {
          "sku": "LYF-M-FEST-MRN-M",
          "size": "M",
          "color": {"name": "Maroon", "hex": "#800000"},
          "stock": 8,
          "price": {
            "currency": "INR",
            "original": 2999,
            "discounted": 1999
          }
        },
        {
          "sku": "LYF-M-FEST-MRN-L",
          "size": "L",
          "color": {"name": "Maroon", "hex": "#800000"},
          "stock": 4,
          "price": {
            "currency": "INR",
            "original": 2999,
            "discounted": 1999
          }
        },
        {
          "sku": "LYF-M-FEST-MRN-XL",
          "size": "XL",
          "color": {"name": "Maroon", "hex": "#800000"},
          "stock": 3,
          "price": {
            "currency": "INR",
            "original": 3199,
            "discounted": 2199
          }
        }
      ]
    }
  ],
  "meta": {
    "page": 1,
    "limit": 12,
    "totalPages": 4,
    "totalItems": 45
  }
}